8 Lesson 6 - Wrangling Verbs – COMP/STAT112 Notebook
…
[1] "grouped_df" "tbl_df"     "tbl"        "data.frame"

Where it really shines is in partnership with summarize().

# What does this do?
# It grouped all the votes by state and then found the median and total votes in that state. 
# (What if we didn't use group_by?)
# It just shows the total and median of ALL votes as opposed to by state. 
 elections_small |> 
   group_by(state_name) |> 
   summarize(median_repub = median(repub_pct_20), total_votes = sum(total_votes_20)) 

# A tibble: 50 × 3
   state_name           median_repub total_votes
   <chr>                       <dbl>       <int>
 1 Alabama                      70.6     2323304
 2 Arizona                      57.9     3387326
 3 Arkansas                     72.1     1219069
 4 California                   44.8    17495906
 5 Colorado                     56.2     3256953
 6 Connecticut                  41.0     1824280
 7 Delaware                     47.1      504010
 8 District of Columbia          5.4      344356
 9 Florida                      64.6    11067456
10 Georgia                      68       4997716
# ℹ 40 more rows
…
Before writing any code, translate the given prompts: how many distinct wrangling steps are needed and what verb do we need in each step?

Add each verb one at a time.

Part a

NOTE: Part a is a challenge exercise. If you get really stuck, move on to Part b which is the same overall question, but with hints.

# Sort the *states* from the most to least total votes cast in 2020
elections_small |> 
   group_by(state_name) |> 
   summarize(total_votes = sum(total_votes_20)) |>
  arrange(desc(total_votes))

# A tibble: 50 × 2
   state_name     total_votes
   <chr>                <int>
 1 California        17495906
 2 Texas             11317911
 3 Florida           11067456
 4 New York           8616205
 5 Pennsylvania       6925255
 6 Illinois           6038850
 7 Ohio               5922202
 8 Michigan           5539302
 9 North Carolina     5524801
10 Georgia            4997716
# ℹ 40 more rows

# In 2020, what were the total number of votes for the Democratic candidate and the total number of votes for the Republican candidate in each *state*?
elections_small |> 
   group_by(state_name) |> 
   summarize(total_votes_dem = sum(dem_pct_20), total_votes_rep = sum(repub_pct_20))

# A tibble: 50 × 3
   state_name           total_votes_dem total_votes_rep
   <chr>                          <dbl>           <dbl>
 1 Alabama                       2296.           4337. 
 2 Arizona                        654.            823. 
 3 Arkansas                      2115.           5164. 
 4 California                    3115.           2548. 
 5 Colorado                      2670.           3581. 
 6 Connecticut                    446.            340. 
 7 Delaware                       163.            133. 
 8 District of Columbia            92.2             5.4
 9 Florida                       2395.           4245. 
10 Georgia                       5573.          10173. 
# ℹ 40 more rows
…
Part b

# Sort the states from the most to least total votes cast in 2020
# HINT: Calculate the total number of votes in each state, then sort
elections_small |> 
   group_by(state_name) |> 
   summarize(total_votes = sum(total_votes_20)) |>
  arrange(desc(total_votes))

# A tibble: 50 × 2
   state_name     total_votes
   <chr>                <int>
 1 California        17495906
 2 Texas             11317911
 3 Florida           11067456
 4 New York           8616205
 5 Pennsylvania       6925255
 6 Illinois           6038850
 7 Ohio               5922202
 8 Michigan           5539302
 9 North Carolina     5524801
10 Georgia            4997716
# ℹ 40 more rows

# In 2020, what were the total number of votes for the Democratic candidate and the total number of votes for the Republican candidate in each state?
# HINT: First calculate the number of Dem and Repub votes in each *county*
# Then group and summarize these by state
elections_small |> 
   mutate(dem_votes_20 = round(total_votes_20 * dem_pct_20 / 100), 
         repub_votes_20 = round(total_votes_20 * repub_pct_20 / 100)) |>
   group_by(state_name) |> 
   summarize(dem_total_votes = sum(dem_votes_20),
             repub_total_votes = sum(repub_votes_20))

# A tibble: 50 × 3
   state_name           dem_total_votes repub_total_votes
   <chr>                          <dbl>             <dbl>
 1 Alabama                       849664           1441155
 2 Arizona                      1672127           1661671
 3 Arkansas                      423919            760641
 4 California                  11109642           6006031
 5 Colorado                     1804393           1364627
 6 Connecticut                  1080677            715315
 7 Delaware                      296274            200601
 8 District of Columbia          317324             18595
 9 Florida                      5297131           5668600
10 Georgia                      2473661           2461869
# ℹ 40 more rows

# What states did the Democratic candidate win in 2020?
# HINT: Start with the results from the previous chunk, and then keep only some rows
elections_small |> 
   mutate(dem_votes_20 = round(total_votes_20 * dem_pct_20 / 100), 
         repub_votes_20 = round(total_votes_20 * repub_pct_20 / 100)) |>
   group_by(state_name) |> 
   summarize(dem_votes = sum(dem_votes_20),
             repub_votes = sum(repub_votes_20)) |>
   filter(dem_votes > repub_votes)

# A tibble: 26 × 3
   state_name           dem_votes repub_votes
   <chr>                    <dbl>       <dbl>
 1 Arizona                1672127     1661671
 2 California            11109642     6006031
 3 Colorado               1804393     1364627
 4 Connecticut            1080677      715315
 5 Delaware                296274      200601
 6 District of Columbia    317324       18595
 7 Georgia                2473661     2461869
 8 Hawaii                  366121      196865
 9 Illinois               3471916     2446931
10 Maine                   430466      359897
# ℹ 16 more rows
…
  median_repub total_votes
1        68.29   157949293

Exercise 8: summarize + group_by demo

# Calculate the median 2020 Repub percent and total votes BY STATE
elections_small |> 
  group_by(state_name) |> 
  summarize(median_repub = median(repub_pct_20), total_votes = sum(total_votes_20)) 

# A tibble: 50 × 3
   state_name           median_repub total_votes
   <chr>                       <dbl>       <int>
 1 Alabama                      70.6     2323304
 2 Arizona                      57.9     3387326
 3 Arkansas                     72.1     1219069
 4 California                   44.8    17495906
 5 Colorado                     56.2     3256953
 6 Connecticut                  41.0     1824280
 7 Delaware                     47.1      504010
 8 District of Columbia          5.4      344356
 9 Florida                      64.6    11067456
10 Georgia                      68       4997716
# ℹ 40 more rows

Exercise 9: DIY

Part a

# Sort the states from the most to least total votes in 2020
elections_small |> 
  group_by(state_name) |> 
  summarize(total = sum(total_votes_20)) |> 
  arrange(desc(total))

# A tibble: 50 × 2
   state_name        total
   <chr>             <int>
 1 California     17495906
 2 Texas          11317911
 3 Florida        11067456
 4 New York        8616205
 5 Pennsylvania    6925255
 6 Illinois        6038850
 7 Ohio            5922202
 8 Michigan        5539302
 9 North Carolina  5524801
10 Georgia         4997716
# ℹ 40 more rows

# In 2020, what were the total number of votes for the Democratic candidate and the total number of votes for the Republican candidate in each *state*?
elections_small |> 
  mutate(dem_votes_20 = round(total_votes_20 * dem_pct_20 / 100), 
         repub_votes_20 = round(total_votes_20 * repub_pct_20 / 100)) |> 
  group_by(state_name) |> 
  summarize(dem_total = sum(dem_votes_20),
            repub_total = sum(repub_votes_20))

# A tibble: 50 × 3
   state_name           dem_total repub_total
   <chr>                    <dbl>       <dbl>
 1 Alabama                 849664     1441155
 2 Arizona                1672127     1661671
 3 Arkansas                423919      760641
 4 California            11109642     6006031
 5 Colorado               1804393     1364627
 6 Connecticut            1080677      715315
 7 Delaware                296274      200601
 8 District of Columbia    317324       18595
 9 Florida                5297131     5668600
10 Georgia                2473661     2461869
# ℹ 40 more rows

# What states did the Democratic candidate win in 2020?
elections_small |> 
  mutate(dem_votes_20 = round(total_votes_20 * dem_pct_20 / 100), 
         repub_votes_20 = round(total_votes_20 * repub_pct_20 / 100)) |> 
  group_by(state_name) |> 
  summarize(dem_total = sum(dem_votes_20),
            repub_total = sum(repub_votes_20)) |> 
  filter(dem_total > repub_total)

# A tibble: 26 × 3
   state_name           dem_total repub_total
   <chr>                    <dbl>       <dbl>
 1 Arizona                1672127     1661671
 2 California            11109642     6006031
 3 Colorado               1804393     1364627
 4 Connecticut            1080677      715315
 5 Delaware                296274      200601
 6 District of Columbia    317324       18595
 7 Georgia                2473661     2461869
 8 Hawaii                  366121      196865
 9 Illinois               3471916     2446931
10 Maine                   430466      359897
# ℹ 16 more rows
…
